Exploring Montana fires with MTBS and PRISM climate data
…
  Class Area_km2  Proportion year
1    NA   0.0000 0.000000000 1984
2     1 232.5006 0.248691006 1984
3     2 403.1460 0.431219465 1984
4     3 172.5318 0.184546220 1984
5     4 116.2467 0.124341652 1984
6     5   6.4836 0.006935092 1984

Let’s once again start with focusing on total area burned. In the exercise above, we plotted fire sizes and fire sizes by year, but let’s use these data to plot how annual total area burned varies over across years. We first need to sum the total area of fires by year. Here we taking the data severity and going to summarize total burned area by year. We first need to group by year and the sum the total area to create a new variable called “TAB”.

total_area <- severity %>% group_by(year) %>% summarize(TAB = sum(Area_km2))
print(total_area)

# A tibble: 40 × 2
    year     TAB
   <int>   <dbl>
 1  1984  931.  
 2  1985  236.  
 3  1986    5.04
 4  1987   28.3 
 5  1988 6565.  
 6  1989   37.2 
 7  1990  399.  
 8  1991  852.  
 9  1992   69.5 
10  1994  902.  
# ℹ 30 more rows
…
We now have year, total area burned, the proportion of fire classified as high severity, and annual precipitation across Montana. We want to explore some climate-fire relationships, but we need to join these data up. Luckily, our data all correspond to Montana, and all datasets include year as a variable. We’ll need to join these data together. Joining data in a relational database is a very powerful approach to asking novel research questions with existing datasets.

Before you run this code, what would you predict the relationship between annual precipitation and total area burned might be? What about annual precipitation and proportion of fires that burned as high severity?

# "You can "pipe" together two left_join functions to add annual_ppt to our total area burned data, then add high_severity. 
tab_high_sev_ppt <- total_area %>% left_join(annual_ppt, by = 'year') %>% 
  left_join(high_severity, by = "year")

print(tab_high_sev_ppt)

# A tibble: 40 × 6
    year     TAB  mean Class Area_km2 Proportion
   <dbl>   <dbl> <dbl> <int>    <dbl>      <dbl>
 1  1984  931.    434.     4  116.        0.124 
 2  1985  236.    439.     4   57.5       0.244 
 3  1986    5.04  535.     4    0.516     0.102 
 4  1987   28.3   405.     4    0.521     0.0184
 5  1988 6565.    378.     4 1874.        0.283 
 6  1989   37.2   533.     4    0.851     0.0229
 7  1990  399.    440.     4   32.4       0.0800
 8  1991  852.    513.     4   36.1       0.0422
 9  1992   69.5   447.     4    1.65      0.0237
10  1994  902.    415.     4   82.8       0.0913
# ℹ 30 more rows
…
